LC-3/LC-3 non gerarchica/Output/dump.vcd
$date
	Mon Jun 10 19:38:58 2024
$end
$version
	Icarus Verilog
$end
$timescale
	1s
$end
$scope module final_Tb $end
$scope module dut $end
$var wire 1 ! clock $end
$var wire 1 " z_in $end
$var wire 29 # signal [28:0] $end
$var wire 1 $ print $end
$var wire 16 % pc_in [15:0] $end
$var wire 1 & p_in $end
$var wire 1 ' n_in $end
$var wire 16 ( mar_to_bus [15:0] $end
$var wire 16 ) ZEXT_out [15:0] $end
$var wire 16 * SR2toALU [15:0] $end
$var wire 16 + SR2out [15:0] $end
$var wire 16 , SR1out [15:0] $end
$var wire 16 - SEXT9_out [15:0] $end
$var wire 16 . SEXT6_out [15:0] $end
$var wire 16 / SEXT5_out [15:0] $end
$var wire 16 0 SEXT11_out [15:0] $end
$var wire 1 1 R_out $end
$var wire 16 2 R2_out [15:0] $end
$var wire 16 3 R1_out [15:0] $end
$var wire 16 4 R0 [15:0] $end
$var wire 16 5 Memory_out [15:0] $end
$var wire 16 6 MDR_out [15:0] $end
$var wire 16 7 BUS [15:0] $end
$var wire 16 8 Adder_out [15:0] $end
$var wire 16 9 ALU_out [15:0] $end
$var parameter 1 : off $end
$var parameter 1 ; on $end
$var reg 16 < IR [15:0] $end
$var reg 16 = MAR [15:0] $end
$var reg 16 > MDR [15:0] $end
$var reg 1 ? N $end
$var reg 1 @ P $end
$var reg 16 A PC [15:0] $end
$var reg 1 B Z $end
$scope module AritmeticLocigUnit $end
$var wire 2 C operazione [1:0] $end
$var wire 16 D data2 [15:0] $end
$var wire 16 E data1 [15:0] $end
$var reg 16 F risultato [15:0] $end
$upscope $end
$scope module Demux $end
$var wire 16 G ALU [15:0] $end
$var wire 16 H MDR [15:0] $end
$var wire 16 I PC [15:0] $end
$var wire 2 J control [1:0] $end
$var wire 16 K MARMUX [15:0] $end
$var reg 16 L BUS [15:0] $end
$upscope $end
$scope module Marmux $end
$var wire 1 M control $end
$var wire 16 N Data2 [15:0] $end
$var wire 16 O Data1 [15:0] $end
$var reg 16 P DataOut [15:0] $end
$upscope $end
$scope module Mdrmux $end
$var wire 16 Q Data2 [15:0] $end
$var wire 1 R control $end
$var wire 16 S Data1 [15:0] $end
$var reg 16 T DataOut [15:0] $end
$upscope $end
$scope module Print $end
$var wire 16 U data_interna [15:0] $end
$var wire 1 $ print $end
$var wire 16 V data [15:0] $end
$upscope $end
$scope module R1 $end
$var wire 16 W Data1 [15:0] $end
$var wire 1 X control $end
$var wire 16 Y Data2 [15:0] $end
$var reg 16 Z DataOut [15:0] $end
$upscope $end
$scope module R2 $end
$var wire 2 [ control [1:0] $end
$var wire 16 \ SEXT9 [15:0] $end
$var wire 16 ] SEXT6 [15:0] $end
$var wire 16 ^ SEXT11 [15:0] $end
$var reg 16 _ Out [15:0] $end
$upscope $end
$scope module Registri $end
$var wire 3 ` DR [2:0] $end
$var wire 3 a SR1 [2:0] $end
$var wire 3 b SR2 [2:0] $end
$var wire 1 ! clock $end
$var wire 16 c data [15:0] $end
$var wire 1 d ld_reg $end
$var reg 16 e R0 [15:0] $end
$var reg 16 f SR1out [15:0] $end
$var reg 16 g SR2out [15:0] $end
$upscope $end
$scope module controllore $end
$var wire 16 h IR [15:0] $end
$var wire 1 ? N $end
$var wire 1 @ P $end
$var wire 1 B Z $end
$var wire 1 ! clock $end
$var wire 4 i opcode [3:0] $end
$var wire 1 1 R $end
$var parameter 4 j ADD $end
$var parameter 4 k AND $end
$var parameter 4 l BR $end
$var parameter 4 m JSR $end
$var parameter 4 n LD $end
$var parameter 4 o LDI $end
$var parameter 4 p LDR $end
$var parameter 4 q LEA $end
$var parameter 4 r NOT $end
$var parameter 4 s RET $end
$var parameter 4 t RTI $end
$var parameter 4 u ST $end
$var parameter 4 v STI $end
$var parameter 4 w STR $end
$var parameter 4 x TRAP $end
$var parameter 4 y X $end
$var parameter 2 z alu $end
$var parameter 32 { delay $end
$var parameter 2 | mar $end
$var parameter 2 } mdr $end
$var parameter 1 ~ off $end
$var parameter 1 !" on $end
$var parameter 2 "" pc $end
$var reg 2 #" Alu [1:0] $end
$var reg 3 $" DR [2:0] $end
$var reg 1 %" MuxMAR $end
$var reg 1 &" MuxMDR $end
$var reg 2 '" MuxPC [1:0] $end
$var reg 1 (" MuxR1 $end
$var reg 2 )" MuxR2 [1:0] $end
$var reg 1 *" MuxSR2 $end
$var reg 3 +" SR1 [2:0] $end
$var reg 3 ," SR2 [2:0] $end
$var reg 2 -" gate [1:0] $end
$var reg 1 ." ld_cc $end
$var reg 1 /" ld_ir $end
$var reg 1 0" ld_mar $end
$var reg 1 1" ld_mdr $end
$var reg 1 2" ld_pc $end
$var reg 1 3" ld_reg $end
$var reg 1 4" read $end
$var reg 1 5" reset $end
$var reg 29 6" signal [28:0] $end
$var reg 1 7" state $end
$var reg 1 8" write $end
$scope task WMFC $end
$upscope $end
$upscope $end
$scope module memory $end
$var wire 16 9" MAR [15:0] $end
$var wire 16 :" MDR_in [15:0] $end
$var wire 1 ! clock $end
$var wire 1 ;" read $end
$var wire 1 <" write $end
$var reg 16 =" MDR [15:0] $end
$var reg 1 1 R $end
$var reg 1 $ print $end
$upscope $end
$scope module nzp $end
$var wire 16 >" data [15:0] $end
$var reg 1 ' N $end
$var reg 1 & P $end
$var reg 1 " Z $end
$upscope $end
$scope module sr2ALU $end
$var wire 16 ?" Data1 [15:0] $end
$var wire 1 @" control $end
$var wire 16 A" Data2 [15:0] $end
$var reg 16 B" DataOut [15:0] $end
$upscope $end
$scope module toPC $end
$var wire 16 C" Bus [15:0] $end
$var wire 16 D" PC [15:0] $end
$var wire 2 E" control [1:0] $end
$var wire 16 F" Adder [15:0] $end
$var reg 16 G" Pcin [15:0] $end
$upscope $end
$scope module trap $end
$var wire 6 H" data [5:0] $end
$var reg 16 I" datout [15:0] $end
$upscope $end
$scope module u $end
$var wire 16 J" data1 [15:0] $end
$var wire 16 K" data2 [15:0] $end
$var reg 16 L" dataOut [15:0] $end
$upscope $end
$scope module u11 $end
$var wire 11 M" data [10:0] $end
$var reg 16 N" datout [15:0] $end
$upscope $end
$scope module u5 $end
$var wire 5 O" data [4:0] $end
$var reg 16 P" datout [15:0] $end
$upscope $end
$scope module u6 $end
$var wire 6 Q" data [5:0] $end
$var reg 16 R" datout [15:0] $end
$upscope $end
$scope module u9 $end
$var wire 9 S" data [8:0] $end
$var reg 16 T" datout [15:0] $end
$upscope $end
$upscope $end
$upscope $end
$enddefinitions $end
$comment Show the parameter values. $end
$dumpall
b0 ""
1!"
0~
b10 }
b11 |
b1010 {
b1 z
b1101 y
b1111 x
b111 w
b1011 v
b11 u
b1000 t
b1100 s
b1001 r
b1110 q
b110 p
b1010 o
b10 n
b100 m
b0 l
b101 k
b1 j
1;
0:
$end
#0
$dumpvars
bx T"
bx S"
bx R"
bx Q"
bx P"
bx O"
bx N"
bx M"
bx L"
bx K"
bx J"
bx I"
bx H"
bx G"
bx F"
bx E"
b11000000000000 D"
bx C"
bx B"
bx A"
x@"
bx ?"
bx >"
bx ="
x<"
x;"
bx :"
bx 9"
x8"
07"
bx 6"
x5"
x4"
x3"
x2"
x1"
x0"
x/"
x."
bx -"
bx ,"
bx +"
x*"
bx )"
x("
bx '"
x&"
x%"
bx $"
bx #"
bx i
bx h
bx g
bx f
bx e
xd
bx c
bx b
bx a
bx `
bx _
bx ^
bx ]
bx \
bx [
bx Z
bx Y
xX
b11000000000000 W
bx V
bx U
bx T
bx S
xR
bx Q
bx P
bx O
bx N
xM
bx L
bx K
bx J
b11000000000000 I
bx H
bx G
bx F
bx E
bx D
bx C
xB
b11000000000000 A
x@
x?
bx >
bx =
bx <
bx 9
bx 8
bx 7
bx 6
bx 5
bx 4
bx 3
bx 2
x1
bx 0
bx /
bx .
bx -
bx ,
bx +
bx *
bx )
bx (
x'
x&
bx %
x$
bx #
x"
0!
$end
#10
0$
b0 U
b0 4
b0 V
b0 e
1!
#20
b11000000000000 6
b11000000000000 T
0"
1&
0'
b11000000000000 7
b11000000000000 L
b11000000000000 Q
b11000000000000 c
b11000000000000 >"
b11000000000000 C"
b0 J
b1xxxxxxxxxxxxxxxxx00xxxxxxxxx #
b1xxxxxxxxxxxxxxxxx00xxxxxxxxx 6"
10"
b0 -"
0!
#30
b11000000000001 %
b11000000000001 G"
bx 6
bx T
0R
0M
b0 E"
b0xxxxx00xx00xxxxxx00xxxxxxxxx #
b0xxxxx00xx00xxxxxx00xxxxxxxxx 6"
b0 '"
0%"
0&"
00"
b11000000000000 =
b11000000000000 9"
1!
#40
0!
#50
bx 7
bx L
bx Q
bx c
bx >"
bx C"
b10 J
b0xxxxx00xx00xxxxxx10xxxxxxxxx #
b0xxxxx00xx00xxxxxx10xxxxxxxxx 6"
b10 -"
1!
#60
1;"
b0xxxxx00xx00xxxx1x10xxxxxxxxx #
b0xxxxx00xx00xxxx1x10xxxxxxxxx 6"
14"
0!
#70
b101001001100000 6
b101001001100000 T
b101001001100000 5
b101001001100000 S
b101001001100000 ="
1!
#80
0;"
b0xx1xx00xx00xxxx0x10xxxxxxxxx #
b0xx1xx00xx00xxxx0x10xxxxxxxxx 6"
12"
04"
11
0!
#90
b1x0xx00xx00xxxx0x10xxxxxxxxx #
b1x0xx00xx00xxxx0x10xxxxxxxxx 6"
b11000000000010 %
b11000000000010 G"
11"
02"
b11000000000001 A
b11000000000001 I
b11000000000001 W
b11000000000001 D"
1!
#100
b0x01x00xx00xxxx0x10xxxxxxxxx #
b0x01x00xx00xxxx0x10xxxxxxxxx 6"
1/"
01"
b101001001100000 7
b101001001100000 L
b101001001100000 Q
b101001001100000 c
b101001001100000 >"
b101001001100000 C"
b101001001100000 >
b101001001100000 H
b101001001100000 :"
0!
#110
b0x00x00xx00xxxx0x10xxxxxxxxx #
b0x00x00xx00xxxx0x10xxxxxxxxx 6"
0/"
b0 *
b0 D
b0 B"
b100000 )
b100000 N
b100000 I"
b0 /
b0 A"
b0 P"
b1111111111100000 .
b1111111111100000 ]
b1111111111100000 R"
b1100000 -
b1100000 \
b1100000 T"
b1001100000 0
b1001100000 ^
b1001100000 N"
b100000 H"
b0 O"
b100000 Q"
b1100000 S"
b1001100000 M"
b101 i
b101001001100000 <
b101001001100000 h
1!
#120
17"
0!
#130
b0 3
b0 Z
b0 J"
b0 +
b0 g
b0 ?"
b0 ,
b0 E
b0 Y
b0 f
b0 b
b1 a
b1 `
1@"
b0x00x00x100xxxx0x10001000001 #
b0x00x00x100xxxx0x10001000001 6"
1*"
b0 ,"
b1 +"
b1 $"
01
1!
#140
0&
1"
b0 9
b0 F
b0 G
b0 7
b0 L
b0 Q
b0 c
b0 >"
b0 C"
b1 C
b1 J
b0x00x00x100xx010x01001000001 #
b0x00x00x100xx010x01001000001 6"
b1 -"
b1 #"
0!
#150
1d
b100100x100xx010x01001000001 #
b100100x100xx010x01001000001 6"
1."
13"
1!
#160
0d
b0x100xx010x01001000001 #
b0x100xx010x01001000001 6"
0."
03"
0@
1B
0?
0!
#170
07"
1!
#180
0!
#190
1!
#200
0"
1&
b11000000000001 7
b11000000000001 L
b11000000000001 Q
b11000000000001 c
b11000000000001 >"
b11000000000001 C"
b0 J
b10000000x100xx010x00001000001 #
b10000000x100xx010x00001000001 6"
10"
b0 -"
0!
#210
b0x100xx010x00001000001 #
b0x100xx010x00001000001 6"
00"
b11000000000001 =
b11000000000001 9"
1!
#220
0!
#230
b101001001100000 7
b101001001100000 L
b101001001100000 Q
b101001001100000 c
b101001001100000 >"
b101001001100000 C"
b10 J
b0x100xx010x10001000001 #
b0x100xx010x10001000001 6"
b10 -"
1!
#240
1;"
b0x100xx011x10001000001 #
b0x100xx011x10001000001 6"
14"
0!
#250
b1001001101000 6
b1001001101000 T
b1001001101000 5
b1001001101000 S
b1001001101000 ="
1!
#260
11
0!
#270
1!
#280
0;"
b10000x100xx010x10001000001 #
b10000x100xx010x10001000001 6"
12"
04"
0!
#290
b1000000x100xx010x10001000001 #
b1000000x100xx010x10001000001 6"
b11000000000011 %
b11000000000011 G"
11"
02"
b11000000000010 A
b11000000000010 I
b11000000000010 W
b11000000000010 D"
1!
#300
b1000x100xx010x10001000001 #
b1000x100xx010x10001000001 6"
1/"
01"
b1001001101000 7
b1001001101000 L
b1001001101000 Q
b1001001101000 c
b1001001101000 >"
b1001001101000 C"
b1001001101000 >
b1001001101000 H
b1001001101000 :"
0!
#310
b0x100xx010x10001000001 #
b0x100xx010x10001000001 6"
0/"
01
b1000 *
b1000 D
b1000 B"
b101000 )
b101000 N
b101000 I"
b1000 /
b1000 A"
b1000 P"
b1111111111101000 .
b1111111111101000 ]
b1111111111101000 R"
b1101000 -
b1101000 \
b1101000 T"
b1001101000 0
b1001101000 ^
b1001101000 N"
b101000 H"
b1000 O"
b101000 Q"
b1101000 S"
b1001101000 M"
b1 i
b1001001101000 <
b1001001101000 h
1!
#320
17"
0!
#330
1!
#340
b1000 9
b1000 F
b1000 G
b0 C
b0x100xx000x10001000001 #
b0x100xx000x10001000001 6"
b0 #"
0!
#350
b1000 7
b1000 L
b1000 Q
b1000 c
b1000 >"
b1000 C"
1d
b1 J
b100100x100xx000x01001000001 #
b100100x100xx000x01001000001 6"
1."
13"
b1 -"
1!
#360
0d
b0x100xx000x01001000001 #
b0x100xx000x01001000001 6"
0."
03"
1@
0B
0!
#370
07"
1!
#380
0!
#390
1!
#400
b11000000000010 7
b11000000000010 L
b11000000000010 Q
b11000000000010 c
b11000000000010 >"
b11000000000010 C"
b0 J
b10000000x100xx000x00001000001 #
b10000000x100xx000x00001000001 6"
10"
b0 -"
0!
#410
b0x100xx000x00001000001 #
b0x100xx000x00001000001 6"
00"
b11000000000010 =
b11000000000010 9"
1!
#420
0!
#430
b1001001101000 7
b1001001101000 L
b1001001101000 Q
b1001001101000 c
b1001001101000 >"
b1001001101000 C"
b10 J
b0x100xx000x10001000001 #
b0x100xx000x10001000001 6"
b10 -"
1!
#440
1;"
b0x100xx001x10001000001 #
b0x100xx001x10001000001 6"
14"
0!
#450
b11001011111111 6
b11001011111111 T
b11001011111111 5
b11001011111111 S
b11001011111111 ="
1!
#460
11
0!
#470
1!
#480
0;"
b10000x100xx000x10001000001 #
b10000x100xx000x10001000001 6"
12"
04"
0!
#490
b1000000x100xx000x10001000001 #
b1000000x100xx000x10001000001 6"
b11000000000100 %
b11000000000100 G"
11"
02"
b11000000000011 A
b11000000000011 I
b11000000000011 W
b11000000000011 D"
1!
#500
b1000x100xx000x10001000001 #
b1000x100xx000x10001000001 6"
1/"
01"
b11001011111111 7
b11001011111111 L
b11001011111111 Q
b11001011111111 c
b11001011111111 >"
b11001011111111 C"
b11001011111111 >
b11001011111111 H
b11001011111111 :"
0!
#510
b0x100xx000x10001000001 #
b0x100xx000x10001000001 6"
0/"
01
b1111111111111111 9
b1111111111111111 F
b1111111111111111 G
b1111111111111111 *
b1111111111111111 D
b1111111111111111 B"
b111111 )
b111111 N
b111111 I"
b1111111111111111 /
b1111111111111111 A"
b1111111111111111 P"
b1111111111111111 .
b1111111111111111 ]
b1111111111111111 R"
b11111111 -
b11111111 \
b11111111 T"
b1011111111 0
b1011111111 ^
b1011111111 N"
b111111 H"
b11111 O"
b111111 Q"
b11111111 S"
b1011111111 M"
b11 i
b11001011111111 <
b11001011111111 h
1!
#520
17"
0!
#530
b111 9
b111 F
b111 G
b1000 3
b1000 Z
b1000 J"
b1000 +
b1000 g
b1000 ?"
b1000 ,
b1000 E
b1000 Y
b1000 f
b1 b
b0x100xx000x10001001001 #
b0x100xx000x10001001001 6"
b1 ,"
1!
#540
b11000100000010 (
b11000100000010 K
b11000100000010 P
b11000100000010 8
b11000100000010 O
b11000100000010 F"
b11000100000010 L"
b11111111 2
b11111111 _
b11111111 K"
b11000000000011 3
b11000000000011 Z
b11000000000011 J"
b10 [
0X
b10010000x10001001001 #
b10010000x10001001001 6"
b10 )"
0("
0!
#550
b11000100000010 7
b11000100000010 L
b11000100000010 Q
b11000100000010 c
b11000100000010 >"
b11000100000010 C"
b11 J
b10000000010010000x11001001001 #
b10000000010010000x11001001001 6"
10"
b11 -"
1!
#560
b1000 9
b1000 F
b1000 G
b1000 *
b1000 D
b1000 B"
b11000100000010 6
b11000100000010 T
b1 C
0@"
1R
b10000010010x11001001001 #
b10000010010x11001001001 6"
1&"
b1 #"
0*"
00"
b11000100000010 =
b11000100000010 9"
0!
#570
b1000 6
b1000 T
b1000 7
b1000 L
b1000 Q
b1000 c
b1000 >"
b1000 C"
b1 J
b10000010010x01001001001 #
b10000010010x01001001001 6"
b1 -"
1!
#580
1<"
b1000010000010010101001001001 #
b1000010000010010101001001001 6"
18"
11"
0!
#590
b1000 >
b1000 H
b1000 :"
1!
#600
11
0!
#610
1!
#620
0<"
b10000010010001001001001 #
b10000010010001001001001 6"
08"
01"
0!
#630
07"
1!
#640
0!
#650
01
1!
#660
b11000000000011 6
b11000000000011 T
b11000000000011 7
b11000000000011 L
b11000000000011 Q
b11000000000011 c
b11000000000011 >"
b11000000000011 C"
b0 J
b10000010000010010000001001001 #
b10000010000010010000001001001 6"
10"
b0 -"
0!
#670
b11001011111111 6
b11001011111111 T
0R
b10010000001001001 #
b10010000001001001 6"
0&"
00"
b11000000000011 =
b11000000000011 9"
1!
#680
0!
#690
b1000 7
b1000 L
b1000 Q
b1000 c
b1000 >"
b1000 C"
b10 J
b10010010001001001 #
b10010010001001001 6"
b10 -"
1!
#700
1;"
b10011010001001001 #
b10011010001001001 6"
14"
0!
#710
b10000011111110 6
b10000011111110 T
b10000011111110 5
b10000011111110 S
b10000011111110 ="
1!
#720
11
0!
#730
1!
#740
0;"
b10000000010010010001001001 #
b10000000010010010001001001 6"
12"
04"
0!
#750
b1000000000010010010001001001 #
b1000000000010010010001001001 6"
b11000000000101 %
b11000000000101 G"
11"
02"
b11000100000011 (
b11000100000011 K
b11000100000011 P
b11000100000011 8
b11000100000011 O
b11000100000011 F"
b11000100000011 L"
b11000000000100 3
b11000000000100 Z
b11000000000100 J"
b11000000000100 A
b11000000000100 I
b11000000000100 W
b11000000000100 D"
1!
#760
b1000000010010010001001001 #
b1000000010010010001001001 6"
1/"
01"
b10000011111110 7
b10000011111110 L
b10000011111110 Q
b10000011111110 c
b10000011111110 >"
b10000011111110 C"
b10000011111110 >
b10000011111110 H
b10000011111110 :"
0!
#770
b10010010001001001 #
b10010010001001001 6"
0/"
01
b11000100000010 (
b11000100000010 K
b11000100000010 P
b11000100000010 8
b11000100000010 O
b11000100000010 F"
b11000100000010 L"
b11111110 2
b11111110 _
b11111110 K"
b111110 )
b111110 N
b111110 I"
b1111111111111110 /
b1111111111111110 A"
b1111111111111110 P"
b1111111111111110 .
b1111111111111110 ]
b1111111111111110 R"
b11111110 -
b11111110 \
b11111110 T"
b11111110 0
b11111110 ^
b11111110 N"
b111110 H"
b11110 O"
b111110 Q"
b11111110 S"
b11111110 M"
b10 i
b10000011111110 <
b10000011111110 h
1!
#780
17"
0!
#790
b0 `
b10010010001001000 #
b10010010001001000 6"
b0 $"
1!
#800
0!
#810
b11000100000010 7
b11000100000010 L
b11000100000010 Q
b11000100000010 c
b11000100000010 >"
b11000100000010 C"
b11 J
b10000000000010010011001001000 #
b10000000000010010011001001000 6"
10"
b11 -"
1!
#820
1;"
b10011011001001000 #
b10011011001001000 6"
14"
00"
b11000100000010 =
b11000100000010 9"
0!
#830
b1000 6
b1000 T
b1000 5
b1000 S
b1000 ="
1!
#840
11
0!
#850
1!
#860
b10000011111110 7
b10000011111110 L
b10000011111110 Q
b10000011111110 c
b10000011111110 >"
b10000011111110 C"
0;"
b10 J
b1000000000010010010001001000 #
b1000000000010010010001001000 6"
b10 -"
11"
04"
0!
#870
1d
b100100000010010010001001000 #
b100100000010010010001001000 6"
1."
13"
01"
b1000 7
b1000 L
b1000 Q
b1000 c
b1000 >"
b1000 C"
b1000 >
b1000 H
b1000 :"
1!
#880
0d
b10010010001001000 #
b10010010001001000 6"
0."
03"
0!
#890
b1000 U
b1000 4
b1000 V
b1000 e
01
07"
1!
#900
0!
#910
1!
#920
b11000000000100 7
b11000000000100 L
b11000000000100 Q
b11000000000100 c
b11000000000100 >"
b11000000000100 C"
b0 J
b10000000000010010000001001000 #
b10000000000010010000001001000 6"
10"
b0 -"
0!
#930
b10010000001001000 #
b10010000001001000 6"
00"
b11000000000100 =
b11000000000100 9"
1!
#940
0!
#950
b1000 7
b1000 L
b1000 Q
b1000 c
b1000 >"
b1000 C"
b10 J
b10010010001001000 #
b10010010001001000 6"
b10 -"
1!
#960
1;"
b10011010001001000 #
b10011010001001000 6"
14"
0!
#970
b1111000000100001 6
b1111000000100001 T
b1111000000100001 5
b1111000000100001 S
b1111000000100001 ="
1!
#980
11
0!
#990
1!
#1000
0;"
b10000000010010010001001000 #
b10000000010010010001001000 6"
12"
04"
0!
#1010
b1000000000010010010001001000 #
b1000000000010010010001001000 6"
b11000000000110 %
b11000000000110 G"
11"
02"
b11000100000011 (
b11000100000011 K
b11000100000011 P
b11000100000011 8
b11000100000011 O
b11000100000011 F"
b11000100000011 L"
b11000000000101 3
b11000000000101 Z
b11000000000101 J"
b11000000000101 A
b11000000000101 I
b11000000000101 W
b11000000000101 D"
1!
#1020
b1000000010010010001001000 #
b1000000010010010001001000 6"
1/"
01"
0&
1'
b1111000000100001 7
b1111000000100001 L
b1111000000100001 Q
b1111000000100001 c
b1111000000100001 >"
b1111000000100001 C"
b1111000000100001 >
b1111000000100001 H
b1111000000100001 :"
0!
#1030
b10010010001001000 #
b10010010001001000 6"
0/"
01
b11000000100110 (
b11000000100110 K
b11000000100110 P
b11000000100110 8
b11000000100110 O
b11000000100110 F"
b11000000100110 L"
b100001 2
b100001 _
b100001 K"
b100001 )
b100001 N
b100001 I"
b1 /
b1 A"
b1 P"
b1111111111100001 .
b1111111111100001 ]
b1111111111100001 R"
b100001 -
b100001 \
b100001 T"
b100001 0
b100001 ^
b100001 N"
b100001 H"
b1 O"
b100001 Q"
b100001 S"
b100001 M"
b1111 i
b1111000000100001 <
b1111000000100001 h
1!
#1040
17"
0!
#1050
b111 `
b10010010001001111 #
b10010010001001111 6"
b111 $"
1!
#1060
1&
0'
b100001 (
b100001 K
b100001 P
b100001 7
b100001 L
b100001 Q
b100001 c
b100001 >"
b100001 C"
1M
b11 J
b10000001000010010011001001111 #
b10000001000010010011001001111 6"
10"
b11 -"
1%"
0!
#1070
b11000000000101 7
b11000000000101 L
b11000000000101 Q
b11000000000101 c
b11000000000101 >"
b11000000000101 C"
1d
b0 J
b101000010010000001001111 #
b101000010010000001001111 6"
13"
b0 -"
00"
b100001 =
b100001 9"
1!
#1080
0d
1;"
b1000010011000001001111 #
b1000010011000001001111 6"
14"
03"
0!
#1090
b1000011011 6
b1000011011 T
b1000011011 5
b1000011011 S
b1000011011 ="
1!
#1100
11
0!
#1110
1!
#1120
0;"
b1000001000010010000001001111 #
b1000001000010010000001001111 6"
04"
11"
0!
#1130
b1000011011 %
b1000011011 G"
b1000011011 7
b1000011011 L
b1000011011 Q
b1000011011 c
b1000011011 >"
b1000011011 C"
b10 E"
b10 J
b10001001010010010001001111 #
b10001001010010010001001111 6"
12"
b10 '"
b10 -"
01"
b1000011011 >
b1000011011 H
b1000011011 :"
1!
#1140
b1001010010010001001111 #
b1001010010010001001111 6"
02"
b1000111100 8
b1000111100 O
b1000111100 F"
b1000111100 L"
b1000011011 3
b1000011011 Z
b1000011011 J"
b1000011011 A
b1000011011 I
b1000011011 W
b1000011011 D"
0!
#1150
01
07"
1!
#1160
0!
#1170
1!
#1180
b0 J
b10000001001010010000001001111 #
b10000001001010010000001001111 6"
10"
b0 -"
0!
#1190
b1000011100 %
b1000011100 G"
b1000111100 (
b1000111100 K
b1000111100 P
0M
b0 E"
b10010000001001111 #
b10010000001001111 6"
1$
b0 '"
0%"
00"
b1000011011 =
b1000011011 9"
1!
#1200
0!
#1210
b10 J
b10010010001001111 #
b10010010001001111 6"
b10 -"
1!
#1220
1;"
b10011010001001111 #
b10011010001001111 6"
14"
0!
#1230
1!
#1240
b1100000111000000 6
b1100000111000000 T
b1100000111000000 5
b1100000111000000 S
b1100000111000000 ="
0!
#1250
11
1!
#1260
0!
#1270
1!
#1280
0;"
b10000000010010010001001111 #
b10000000010010010001001111 6"
12"
04"
0!
#1290
b1000000000010010010001001111 #
b1000000000010010010001001111 6"
b1000011101 %
b1000011101 G"
11"
02"
b1000111101 (
b1000111101 K
b1000111101 P
b1000111101 8
b1000111101 O
b1000111101 F"
b1000111101 L"
b1000011100 3
b1000011100 Z
b1000011100 J"
b1000011100 A
b1000011100 I
b1000011100 W
b1000011100 D"
1!
#1300
b1000000010010010001001111 #
b1000000010010010001001111 6"
1/"
01"
01
0&
1'
b1100000111000000 7
b1100000111000000 L
b1100000111000000 Q
b1100000111000000 c
b1100000111000000 >"
b1100000111000000 C"
b1100000111000000 >
b1100000111000000 H
b1100000111000000 :"
0!
#1310
b10010010001001111 #
b10010010001001111 6"
0/"
b111011100 (
b111011100 K
b111011100 P
b111011100 8
b111011100 O
b111011100 F"
b111011100 L"
b1111111111000000 2
b1111111111000000 _
b1111111111000000 K"
b0 )
b0 N
b0 I"
b0 /
b0 A"
b0 P"
b0 .
b0 ]
b0 R"
b1111111111000000 -
b1111111111000000 \
b1111111111000000 T"
b111000000 0
b111000000 ^
b111000000 N"
b0 H"
b0 O"
b0 Q"
b111000000 S"
b111000000 M"
b1100 i
b1100000111000000 <
b1100000111000000 h
1!
#1320
17"
0!
#1330
b0 9
b0 F
b0 G
b11000000000101 ,
b11000000000101 E
b11000000000101 Y
b11000000000101 f
b111 a
b10010010111001111 #
b10010010111001111 6"
b111 +"
1!
#1340
b11000000000101 %
b11000000000101 G"
b11000000000101 (
b11000000000101 K
b11000000000101 P
b11000000000101 8
b11000000000101 O
b11000000000101 F"
b11000000000101 L"
b0 2
b0 _
b0 K"
b11000000000101 3
b11000000000101 Z
b11000000000101 J"
b0 [
1X
b1 E"
b10000100100010010111001111 #
b10000100100010010111001111 6"
12"
b1 '"
b0 )"
1("
0!
#1350
b100100010010111001111 #
b100100010010111001111 6"
02"
b11000000000101 A
b11000000000101 I
b11000000000101 W
b11000000000101 D"
1!
#1360
07"
0!
#1370
1!
#1380
1&
0'
b11000000000101 7
b11000000000101 L
b11000000000101 Q
b11000000000101 c
b11000000000101 >"
b11000000000101 C"
b0 J
b10000000100100010000111001111 #
b10000000100100010000111001111 6"
10"
b0 -"
0!
#1390
b11000000000110 %
b11000000000110 G"
b0 E"
b100000010000111001111 #
b100000010000111001111 6"
0$
b0 '"
00"
b11000000000101 =
b11000000000101 9"
1!
#1400
0!
#1410
0&
1'
b1100000111000000 7
b1100000111000000 L
b1100000111000000 Q
b1100000111000000 c
b1100000111000000 >"
b1100000111000000 C"
b10 J
b100000010010111001111 #
b100000010010111001111 6"
b10 -"
1!
#1420
1;"
b100000011010111001111 #
b100000011010111001111 6"
14"
0!
#1430
b1111000000100101 6
b1111000000100101 T
b1111000000100101 5
b1111000000100101 S
b1111000000100101 ="
1!
#1440
11
0!
#1450
1!
#1460
0;"
b10000100000010010111001111 #
b10000100000010010111001111 6"
12"
04"
0!
#1470
b1000000100000010010111001111 #
b1000000100000010010111001111 6"
b11000000000111 %
b11000000000111 G"
11"
02"
b11000000000110 A
b11000000000110 I
b11000000000110 W
b11000000000110 D"
1!
#1480
b1000100000010010111001111 #
b1000100000010010111001111 6"
1/"
01"
b1111000000100101 7
b1111000000100101 L
b1111000000100101 Q
b1111000000100101 c
b1111000000100101 >"
b1111000000100101 C"
b1111000000100101 >
b1111000000100101 H
b1111000000100101 :"
0!
#1490
b100000010010111001111 #
b100000010010111001111 6"
0/"
01
b100101 )
b100101 N
b100101 I"
b101 /
b101 A"
b101 P"
b1111111111100101 .
b1111111111100101 ]
b1111111111100101 R"
b100101 -
b100101 \
b100101 T"
b100101 0
b100101 ^
b100101 N"
b100101 H"
b101 O"
b100101 Q"
b100101 S"
b100101 M"
b1111 i
b1111000000100101 <
b1111000000100101 h
1!
#1500
17"
0!
#1510
1!
#1520
1&
0'
b100101 (
b100101 K
b100101 P
b100101 7
b100101 L
b100101 Q
b100101 c
b100101 >"
b100101 C"
1M
b11 J
b10000001100000010011111001111 #
b10000001100000010011111001111 6"
10"
b11 -"
1%"
0!
#1530
b11000000000110 7
b11000000000110 L
b11000000000110 Q
b11000000000110 c
b11000000000110 >"
b11000000000110 C"
1d
b0 J
b101100000010000111001111 #
b101100000010000111001111 6"
13"
b0 -"
00"
b100101 =
b100101 9"
1!
